<?xml version="1.0" encoding="UTF-8"?>
<session version="1.0">
<refactoring accessors="true" comment="Delete element from project &apos;FinalProject&apos;&#x0A;- Original project: &apos;FinalProject&apos;&#x0A;- Original element: &apos;Person.java&apos;" description="Delete element" element1="/src&lt;{Person.java" elements="1" flags="589830" id="org.eclipse.jdt.ui.delete" resources="0" stamp="1403119839991" subPackages="false" version="1.0"/>
</session>